,uni_name
0,University of Aberdeen
1,Abertay University (former University of Abertay Dundee)
2,Aberystwyth University (Prifysgol Aberystwyth)
3,Anglia Ruskin University
4,Anglo-European College of Chiropractic
5,"Archbishop of Canterbury, The"
6,Arden University (former Resource Development International)
7,Ashridge Business School
8,Aston University
9,Bangor University (Prifysgol Bangor)
10,University of Bath
11,Bath Spa University
12,University of Bedfordshire
13,"Birkbeck, Uiversity of London"
14,University of Birmingham
15,Birmingham City University
16,University of Bolton
17,Arts University Bournemouth
18,Bournemouth University
19,BPP University
20,University of Bradford
21,Uiversity of Brighton
22,University of Bristol
23,Brunel University London
24,University of Buckingham
25,Buckinghamshire New University
26,University of Cambridge
27,Canterbury Christ Church University
28,Cardiff Metropolitan University (Prifysgol Metropolitan Caerdydd)
29,Cardiff university (Prifysgol Caerdydd)
30,University of Chester
31,University of Chichester
32,City University London
33,"Courtauld Institute of Art, (degrees awarded by University of London)"
34,Coventry University
35,Cranfield University
36,University for the Creative Arts
37,University of Cumbria
38,De Montfort University
39,University of Derby
40,University of Dundee
41,Durham University
42,University of East Anglia
43,University of East London
44,Edge Hill University
45,University of Edinburgh
46,Edinburgh Napier University
47,University of Essex
48,University of Exter
49,Falmouth University
50,Glasgow Caledonian University
51,University of Gloucestershire
52,Glyndŵr University (Prifysgol Glyndŵr)
53,"Goldsmiths, University of London"
54,University of Greenwich
55,Guildhall School of Music and Drama
56,Harper Adams University
57,Hartpury College
58,Heriot-Watt University
59,University of Hertfordshire
60,Heythrop College (degrees awarded by University of London)
61,University of the Highlands and Islands
62,University of Huddersfield
63,University of Hull
64,"Imperial College of Science, Technology and Medicine (known as Imperial College of London)"
65,Institute of Cancer Research (degrees awarded by University of London)
66,"Institute of Education, University of London"
67,Keele University
68,University of Kent
69,King’s College London
70,Kingston University
71,University of Central Lancashire
72,Lancaster University
73,University of Leeds
74,Leeds Becket Uinversity (foremer Leeds Metropolitan University)
75,Leeds College of Art
76,Leeds Trinity University
77,University of Leicester
78,University of Lincoln
79,University of Liverpool
80,Liverpool Hope University
81,Liverpool John Moores University
82,Liverpool School of Tropical Medicine
83,University of London
84,London Business School
85,London Institute of Banking and Finance
86,London Metropolitan University
87,London Chool of Hygiene and Tropical Medicine
88,London School of Economics and Political Science
89,London South Bank University
90,University College London
91,Loughborough University
92,University of Manchester
93,Manchester Metropolitan University
94,Middlesex University
95,NCG
96,Newcastle University
97,"Newman University, Birmingham"
98,University of Northampton
99,Northumbria University Newcastle
100,Norwich University of the Arts
101,University of Nottingham
102,Nottingham Trent University
103,Open University
104,University of Oxford
105,Oxford Brookes University
106,Plymouth University
107,Portsmouth University
108,"Queen Margaret University, Edinburgh"
109,"Queen Mary, University of London"
110,Queen’s University Belfast
111,Ravensbourne
112,University of Reading
113,Regent’s University London
114,"Robert Gordon University, Aberdeen"
115,University of Roehampton
116,Rose Bruford College of Theatre and Performance
117,Royal Academy of Music
118,Royal Agricultural University
119,Royal Central School of Speech and Drama (University of London)
120,Royal College of Art
121,Royal College of Music
122,Royal College of Nursing
123,Royal Conservatoire of Scotland
124,"Royal Holloway, University of London"
125,Royal Northern College of Music
126,Royal Veterinary College
127,University of Salford
128,"School of Oriental and African Studies (SOAS), University of London"
129,University of Sheffield
130,Sheffield Hallam University
131,University of South Wales (Prifysgol De Cymru)
132,University of Southampton
133,Solent University
134,University of St Andrews
135,"St George’s, University of London"
136,"University of St Mark and St John, Plymouth"
137,"St Mary’s University, Twickenham"
138,Staffordshire University
139,University of Stirling
140,University of Strathclyde
141,University of Suffolk
142,University of Sunderland
143,University of Surrey
144,University of Sussex
145,Swansea University (Prifysgol Abertawe)
146,Teesside University
147,Trinity Laban Conservatoire of Music and Dance
148,"University of the Arts, London"
149,University College of Estate Management
150,University College of Osteopathy
151,University of Law
152,University of Ulster
153,University of Wales (Prifysgol Cymru)
154,University of Wales Trinity Saint David (Prifysgol Cymry Y Drindod Dewi Sant)
155,University of Warwick
156,"University of the West of England, Bristol"
157,University of West London
158,University of the West of Scotland
159,University of Westminster
160,University of Winchester
161,University of Wolverhampton
162,University of Worcester
163,Writtel University College
164,University of York
165,York St John University
